<?xml version="1.0" encoding="UTF-8"?>
<!-- Generator: Adobe Illustrator 21.0.2, SVG Export Plug-In . SVG Version: 6.00 Build 0)  -->
<svg version="1.1" id="Layer_1" xmlns="http://www.w3.org/2000/svg" xmlns:xlink="http://www.w3.org/1999/xlink" x="0px" y="0px" viewBox="0 0 50 50" style="enable-background:new 0 0 50 50;" xml:space="preserve">
<style type="text/css">
	.st0{fill:#B3B3B3;}
</style>
<path class="st0" d="M2.9,29.3h44.9c0.8,0,1.6-0.7,1.6-1.6c0-0.8-0.7-1.6-1.6-1.6H7.9l6.4-4.5c0.7-0.5,0.8-1.5,0.4-2.2  c-0.4-0.7-1.5-0.8-2.2-0.4L2.1,26.4c-0.5,0.4-0.8,1.1-0.6,1.8C1.6,28.9,2.2,29.3,2.9,29.3z"/>
</svg>