<?xml version="1.0" encoding="UTF-8" standalone="no"?>
<svg width="20" height="20" viewBox="0 0 20 20" fill="none" xmlns="http://www.w3.org/2000/svg">
<path d="M16.0648 4.91729C16.2789 4.70318 16.2789 4.35603 16.0648 4.14191C15.8507 3.92779 15.5036 3.92779 15.2894 4.14191L11.7772 7.65417V5.38833C11.7772 5.08458 11.5309 4.83833 11.2272 4.83833C10.9234 4.83833 10.6772 5.08458 10.6772 5.38833V8.98972C10.6772 9.29348 10.9234 9.53972 11.2272 9.53972H14.8286C15.1323 9.53972 15.3786 9.29348 15.3786 8.98972C15.3786 8.68597 15.1323 8.43972 14.8286 8.43972H12.5424L16.0648 4.91729Z" fill="#808080"/>
<path fill-rule="evenodd" clip-rule="evenodd" d="M18 2H2V18H18V2ZM2 1C1.44772 1 1 1.44772 1 2V18C1 18.5523 1.44772 19 2 19H18C18.5523 19 19 18.5523 19 18V2C19 1.44772 18.5523 1 18 1H2Z" fill="#808080"/>
<path fill-rule="evenodd" clip-rule="evenodd" d="M2.1 10.4077V17.9H9.5923V10.4077H2.1ZM2 9.30772C1.44772 9.30772 1 9.75544 1 10.3077V18C1 18.5523 1.44771 19 2 19H9.6923C10.2446 19 10.6923 18.5523 10.6923 18V10.3077C10.6923 9.75544 10.2446 9.30772 9.6923 9.30772H2Z" fill="#808080"/>
</svg>